{
    "verbose": false,
    "watch": [
      "app/server.jsx",
      "app/routes.jsx",
      "server",
      "webpack"
    ],
    "exec": "npm run build:dev && npm run babel-node -- server/index.js"
}
